tidyverse脳になって階層構造のあるデータフレームを使いこなそう
…
1704行、結構大きなデータサイズですね。一方でこのデータセットは国ごとの5年ごとの人口、出生時平均余命について記録したデータであるので、国 countryをキーとして入れ子にすることが可能です。

gapminder %>% count(continent, country)
## Source: local data frame [142 x 3]
## Groups: continent [?]
## 
##    continent                  country     n
##       <fctr>                   <fctr> <int>
## 1     Africa                  Algeria    12
## 2     Africa                   Angola    12
## 3     Africa                    Benin    12
## 4     Africa                 Botswana    12
## 5     Africa             Burkina Faso    12
## 6     Africa                  Burundi    12
## 7     Africa                 Cameroon    12
## 8     Africa Central African Republic    12
## 9     Africa                     Chad    12
## 10    Africa                  Comoros    12
## # ... with 132 more rows

nest_by_country <- gapminder %>% 
  group_by(country) %>% 
  nest()

階層構造のあるデータフレームを作る方法はいくつかあるのですが、上記のようにdplyr::group_by()によるグループ化を行ったのち、tidyr::nest()を使うのが最も簡単です。あるいは、gapminder %>% tidyr::nest(-country)で直接グループネストを作っても良いかもしれません。

さて、上記で作成したnest_by_countryというオブジェクトを出力すると次の結果が得られます。

nest_by_country
## # A tibble: 142 × 2
##        country               data
##         <fctr>             <list>
## 1  Afghanistan <tibble [12 × 5]>
## 2      Albania <tibble [12 × 5]>
## 3      Algeria <tibble [12 × 5]>
## 4       Angola <tibble [12 × 5]>
## 5    Argentina <tibble [12 × 5]>
## 6    Australia <tibble [12 × 5]>
## 7      Austria <tibble [12 × 5]>
## 8      Bahrain <tibble [12 × 5]>
## 9   Bangladesh <tibble [12 × 5]>
## 10     Belgium <tibble [12 × 5]>
## # ... with 132 more rows
…
つまり階層構造のあるデータフレームとは、データフレームに含まれる任意の変数をキーとし、そのキーに含まれる値を別のオブジェクトとし、キーと紐づいた変数に格納することを示しているのです。

多くのデータは、1つ以上のキーあるいはカテゴリ変数をもっています。そしてこれらのキーに応じて、キーに含まれる項目の数を集計したり、キーごとに処理を行ったり、統計モデリングを適用したりといったことが頻繁に行われます。これらの出力形式はさまざまですが、キーを基準としている以上、処理結果をキーと紐づけることが可能です。ですが、格納形式が厳密なデータフレームではそれができません。そのため、階層構造のあるデータフレームはリストのようにデータフレームの中にさらにオブジェクトを含めることを可能としています。これにより、元のデータ（キー）と処理結果を簡単に紐付け、再びデータフレームとして操作することができます。

また上記で、入れ子にされるオブジェクトを別のオブジェクトと書きましたが、これは先のようにデータフレームでなく、リストや統計解析のためのオブジェクトであってもネスト可能であることを示しています。今度はdplyr::do()を用いて線形回帰を行ってみましょう。dplyr::do()はグループに対し共通の処理を施すのに適しています。

(do_by_country <- gapminder %>% 
  group_by(country) %>% 
  do(data = lm(lifeExp ~ year, data = .)))
## Source: local data frame [142 x 2]
## Groups: <by row>
## 
## # A tibble: 142 × 2
##        country     data
## *       <fctr>   <list>
## 1  Afghanistan <S3: lm>
## 2      Albania <S3: lm>
## 3      Algeria <S3: lm>
## 4       Angola <S3: lm>
## 5    Argentina <S3: lm>
## 6    Australia <S3: lm>
## 7      Austria <S3: lm>
## 8      Bahrain <S3: lm>
## 9   Bangladesh <S3: lm>
## 10     Belgium <S3: lm>
## # ... with 132 more rows
…
do_by_country %>% filter(country == "Afghanistan")
## # A tibble: 2 × 6
##       country        term     estimate   std.error statistic
##        <fctr>       <chr>        <dbl>       <dbl>     <dbl>
## 1 Afghanistan (Intercept) -507.5342716 40.48416195 -12.53661
## 2 Afghanistan        year    0.2753287  0.02045093  13.46289
## # ... with 1 more variables: p.value <dbl>

しかし、全ての入れ子がデータフレームにできるわけではありません。そのような時には{purrr}による関数型プログラミングによるデータ操作が効果を発揮します。

by_country <- nest_by_country %>% 
  dplyr::mutate(model = purrr::map(data, ~ lm(lifeExp ~ year, data = .)))

by_country %>% unnest(model %>% purrr::map(broom::tidy))
## # A tibble: 284 × 6
##        country        term      estimate    std.error  statistic
##         <fctr>       <chr>         <dbl>        <dbl>      <dbl>
## 1  Afghanistan (Intercept)  -507.5342716 40.484161954 -12.536613
## 2  Afghanistan        year     0.2753287  0.020450934  13.462890
## 3      Albania (Intercept)  -594.0725110 65.655359062  -9.048348
## 4      Albania        year     0.3346832  0.033166387  10.091036
## 5      Algeria (Intercept) -1067.8590396 43.802200843 -24.379118
## 6      Algeria        year     0.5692797  0.022127070  25.727749
## 7       Angola (Intercept)  -376.5047531 46.583370599  -8.082385
## 8       Angola        year     0.2093399  0.023532003   8.895964
## 9    Argentina (Intercept)  -389.6063445  9.677729641 -40.258031
## 10   Argentina        year     0.2317084  0.004888791  47.395847
## # ... with 274 more rows, and 1 more variables: p.value <dbl>
by_country %>% unnest(model %>% purrr::map(broom::augment))
## # A tibble: 1,704 × 10
##        country lifeExp  year  .fitted   .se.fit      .resid       .hat
##         <fctr>   <dbl> <int>    <dbl>     <dbl>       <dbl>      <dbl>
## 1  Afghanistan  28.801  1952 29.90729 0.6639995 -1.10629487 0.29487179
## 2  Afghanistan  30.332  1957 31.28394 0.5799442 -0.95193823 0.22494172
## 3  Afghanistan  31.997  1962 32.66058 0.5026799 -0.66358159 0.16899767
## 4  Afghanistan  34.020  1967 34.03722 0.4358337 -0.01722494 0.12703963
## 5  Afghanistan  36.088  1972 35.41387 0.3848726  0.67413170 0.09906760
## 6  Afghanistan  38.438  1977 36.79051 0.3566719  1.64748834 0.08508159
## 7  Afghanistan  39.854  1982 38.16716 0.3566719  1.68684499 0.08508159
## 8  Afghanistan  40.822  1987 39.54380 0.3848726  1.27820163 0.09906760
## 9  Afghanistan  41.674  1992 40.92044 0.4358337  0.75355828 0.12703963
## 10 Afghanistan  41.763  1997 42.29709 0.5026799 -0.53408508 0.16899767
## # ... with 1,694 more rows, and 3 more variables: .sigma <dbl>,
## #   .cooksd <dbl>, .std.resid <dbl>
…
